<?xml version="1.0" encoding="utf-8"?>
<!-- Generator: Adobe Illustrator 24.1.0, SVG Export Plug-In . SVG Version: 6.00 Build 0)  -->
<svg version="1.1" id="Capa_1" xmlns="http://www.w3.org/2000/svg" xmlns:xlink="http://www.w3.org/1999/xlink" x="0px" y="0px"
	 viewBox="0 0 820 555.6" style="enable-background:new 0 0 820 555.6;" xml:space="preserve">
<style type="text/css">
	.st0{display:none;}
	.st1{display:inline;opacity:0.22;}
	.st2{fill:none;stroke:#AFD5CC;stroke-width:7.5677;stroke-linecap:round;stroke-miterlimit:10;}
	.st3{display:inline;opacity:0.23;}
	.st4{fill:none;stroke:#EBADCD;stroke-width:3;stroke-linecap:round;stroke-miterlimit:10;}
	.st5{display:inline;}
	.st6{display:inline;opacity:0.25;}
	.st7{fill:none;stroke:#EBADCD;stroke-width:4.5438;stroke-linecap:round;stroke-miterlimit:10;}
	.st8{fill:none;stroke:#AFD5CC;stroke-width:3;stroke-linecap:round;stroke-miterlimit:10;}
	.st9{display:inline;opacity:0.41;}
	.st10{fill:none;stroke:#EBADCD;stroke-width:6.9558;stroke-linecap:round;stroke-miterlimit:10;}
	.st11{clip-path:url(#SVGID_2_);}
	.st12{opacity:0.22;}
	.st13{fill:none;stroke:#AFD5CC;stroke-width:6.2209;stroke-linecap:round;stroke-miterlimit:10;}
	.st14{opacity:0.23;}
	.st15{fill:none;stroke:#EBADCD;stroke-width:1.3481;stroke-linecap:round;stroke-miterlimit:10;}
	.st16{fill:none;stroke:#EBADCD;stroke-width:2.4661;stroke-linecap:round;stroke-miterlimit:10;}
	.st17{opacity:0.41;}
	.st18{fill:none;stroke:#EBADCD;stroke-width:5.7179;stroke-linecap:round;stroke-miterlimit:10;}
	.st19{fill:none;stroke:#AFD5CC;stroke-width:1.9181;stroke-linecap:round;stroke-miterlimit:10;}
	.st20{opacity:0.74;}
	.st21{fill:none;stroke:#AFD5CC;stroke-width:2.5567;stroke-linecap:round;stroke-miterlimit:10;}
	.st22{opacity:0.74;fill:#AFD5CC;enable-background:new    ;}
</style>
<g id="Capa_2_1_">
	<g class="st0">
		<g class="st1">
			<line class="st2" x1="33.4" y1="56.4" x2="33.4" y2="72.5"/>
			<line class="st2" x1="113.6" y1="26.2" x2="113.6" y2="89.5"/>
			<line class="st2" x1="153.7" y1="61.8" x2="153.7" y2="77.9"/>
			<line class="st2" x1="60.1" y1="40.1" x2="60.1" y2="87.3"/>
			<line class="st2" x1="46.8" y1="52.1" x2="46.8" y2="77.1"/>
			<line class="st2" x1="127" y1="34.8" x2="127" y2="82.1"/>
			<line class="st2" x1="140.3" y1="55.3" x2="140.3" y2="90.8"/>
			<line class="st2" x1="100.2" y1="11.8" x2="100.2" y2="75.1"/>
			<line class="st2" x1="86.9" y1="43.6" x2="86.9" y2="90.9"/>
			<line class="st2" x1="73.5" y1="28.5" x2="73.5" y2="75.7"/>
		</g>
		<g class="st3">
			<path class="st4" d="M153.8,14.7c-0.3,2.5-0.5,5.3-0.5,8.3c0,3.7,0.2,7.1,0.5,10.1"/>
			<path class="st4" d="M161.2,15.7l-6.6,6.8c0,0,6.1,3.6,5.9,10.6"/>
			<line class="st4" x1="164.6" y1="24.4" x2="173.6" y2="24.4"/>
			<line class="st4" x1="178.3" y1="32.6" x2="178.3" y2="15.7"/>
			<line class="st4" x1="209.4" y1="33.3" x2="208.3" y2="15.4"/>
			<path class="st4" d="M178.8,16.6c1.4-2.6,9.1-3.4,9.5,2.2s-9.1,5-9.1,5"/>
			<path class="st4" d="M208.5,18.5c2.5-6,9.4-4,9.8,1.7s-8.5,4.5-8.5,4.5"/>
			<path class="st4" d="M203.3,22.7c0.9,4-0.5,8.1-3.7,8.8c-3.2,0.7-6-1.8-6.8-5.8c-0.9-4,0.4-9.3,3.6-10
				C199.6,15.1,202.5,18.8,203.3,22.7z"/>
		</g>
		<g class="st5">
			<path class="st4" d="M-1.2,123.5c1.1,2.3,2.3,4.8,3.9,7.4c1.9,3.2,3.8,6,5.7,8.3"/>
			<path class="st4" d="M5.6,120.5l-2.1,9.2c0,0,7.1-0.1,10.5,6"/>
			<line class="st4" x1="13.1" y1="126.2" x2="20.7" y2="121.5"/>
			<line class="st4" x1="29" y1="126.1" x2="20.3" y2="111.7"/>
			<line class="st4" x1="56" y1="110.5" x2="45.7" y2="95.8"/>
			<path class="st4" d="M21.1,112.1c-0.2-3,5.9-7.7,9.3-3s-5.1,9-5.1,9"/>
			<path class="st4" d="M47.5,98.3c-1-6.4,6-8.3,9.3-3.7s-4.9,8.3-4.9,8.3"/>
			<path class="st4" d="M45.3,104.6c2.8,2.9,3.8,7.2,1.4,9.4c-2.3,2.2-6.1,1.6-8.8-1.4s-4.5-8.1-2.1-10.4
				C38,100.1,42.5,101.7,45.3,104.6z"/>
		</g>
		<g class="st5">
			<path class="st4" d="M143.3,93.4c0.2,2.5,0.6,5.3,1.2,8.2c0.7,3.6,1.6,6.9,2.6,9.8"/>
			<path class="st4" d="M150.7,92.9l-5.1,8c0,0,6.7,2.2,7.9,9.2"/>
			<line class="st4" x1="155.9" y1="100.7" x2="164.6" y2="98.8"/>
			<line class="st4" x1="170.9" y1="105.9" x2="167.5" y2="89.4"/>
			<line class="st4" x1="201.5" y1="100.2" x2="196.8" y2="82.9"/>
			<path class="st4" d="M168.1,90.1c0.8-2.8,8.1-5.3,9.8,0.2c1.6,5.5-7.8,6.8-7.8,6.8"/>
			<path class="st4" d="M197.6,85.8c1.2-6.4,8.4-5.8,10-0.3s-7.4,6.2-7.4,6.2"/>
			<path class="st4" d="M193.4,91c1.6,3.7,1.2,8-1.8,9.3s-6.2-0.6-7.9-4.2c-1.6-3.7-1.5-9.2,1.4-10.5S191.7,87.3,193.4,91z"/>
		</g>
		<g class="st5">
			<path class="st4" d="M77.6,215.4c0.3,2.5,0.7,5.3,1.3,8.2c0.8,3.6,1.7,6.9,2.7,9.7"/>
			<path class="st4" d="M85,214.8l-5,8.1c0,0,6.8,2.1,8.1,9"/>
			<line class="st4" x1="90.3" y1="222.5" x2="99" y2="220.5"/>
			<line class="st4" x1="105.4" y1="227.4" x2="101.7" y2="211"/>
			<line class="st4" x1="135.9" y1="221.2" x2="130.9" y2="204"/>
			<path class="st4" d="M102.4,211.7c0.8-2.9,8.1-5.4,9.8,0.1c1.7,5.4-7.7,6.9-7.7,6.9"/>
			<path class="st4" d="M131.8,207c1.1-6.4,8.3-5.9,10-0.5s-7.3,6.3-7.3,6.3"/>
			<path class="st4" d="M127.7,212.3c1.7,3.7,1.3,8-1.7,9.4c-2.9,1.4-6.2-0.4-7.9-4.1c-1.7-3.7-1.7-9.1,1.3-10.5
				C122.3,205.6,125.9,208.6,127.7,212.3z"/>
		</g>
		<g class="st6">
			<path class="st7" d="M6.7,194.2c0.4,3.8,1.1,8,2,12.4c1.2,5.5,2.6,10.4,4.2,14.7"/>
			<path class="st7" d="M17.9,193.3l-7.5,12.2c0,0,10.3,3.2,12.2,13.7"/>
			<line class="st7" x1="25.9" y1="204.9" x2="39.1" y2="201.9"/>
			<line class="st7" x1="48.9" y1="212.5" x2="43.2" y2="187.6"/>
			<line class="st7" x1="95" y1="203.1" x2="87.4" y2="177"/>
			<path class="st7" d="M44.3,188.6c1.2-4.3,12.2-8.1,14.8,0.1s-11.7,10.5-11.7,10.5"/>
			<path class="st7" d="M88.7,181.5c1.7-9.7,12.5-9,15.1-0.8s-11,9.5-11,9.5"/>
			<path class="st7" d="M82.5,189.4c2.6,5.5,1.9,12.1-2.5,14.2s-9.4-0.7-12-6.2s-2.5-13.8,1.9-15.9S79.9,183.9,82.5,189.4z"/>
		</g>
		<g class="st5">
			<line class="st8" x1="56.5" y1="143.7" x2="56.5" y2="150.1"/>
			<line class="st8" x1="88.3" y1="131.7" x2="88.3" y2="156.8"/>
			<line class="st8" x1="104.2" y1="145.8" x2="104.2" y2="152.2"/>
			<line class="st8" x1="67.1" y1="137.2" x2="67.1" y2="155.9"/>
			<line class="st8" x1="61.8" y1="142" x2="61.8" y2="151.9"/>
			<line class="st8" x1="93.6" y1="135.1" x2="93.6" y2="153.9"/>
			<line class="st8" x1="98.8" y1="143.3" x2="98.8" y2="157.3"/>
			<line class="st8" x1="82.9" y1="126" x2="82.9" y2="151.1"/>
			<line class="st8" x1="77.7" y1="138.6" x2="77.7" y2="157.3"/>
			<line class="st8" x1="72.3" y1="132.6" x2="72.3" y2="151.3"/>
		</g>
		<g class="st5">
			<line class="st8" x1="-10.8" y1="21.9" x2="-10.8" y2="28.2"/>
			<line class="st8" x1="21" y1="9.9" x2="21" y2="35"/>
			<line class="st8" x1="36.9" y1="24" x2="36.9" y2="30.4"/>
			<line class="st8" x1="-0.2" y1="15.4" x2="-0.2" y2="34.1"/>
			<line class="st8" x1="-5.5" y1="20.2" x2="-5.5" y2="30.1"/>
			<line class="st8" x1="26.3" y1="13.3" x2="26.3" y2="32"/>
			<line class="st8" x1="31.6" y1="21.4" x2="31.6" y2="35.5"/>
			<line class="st8" x1="15.7" y1="4.2" x2="15.7" y2="29.3"/>
			<line class="st8" x1="10.4" y1="16.8" x2="10.4" y2="35.5"/>
			<line class="st8" x1="5.1" y1="10.8" x2="5.1" y2="29.5"/>
		</g>
		<g class="st5">
			<line class="st4" x1="105.3" y1="119.4" x2="106.2" y2="130.5"/>
			<line class="st4" x1="100.2" y1="125.4" x2="111.3" y2="124.5"/>
		</g>
		<g class="st5">
			<line class="st4" x1="61.3" y1="248.9" x2="62.2" y2="259.9"/>
			<line class="st4" x1="56.2" y1="254.8" x2="67.3" y2="254"/>
		</g>
		<g class="st5">
			<line class="st4" x1="32.9" y1="161.3" x2="33.7" y2="172.4"/>
			<line class="st4" x1="27.8" y1="167.3" x2="38.8" y2="166.4"/>
		</g>
		<g class="st9">
			<line class="st10" x1="122.8" y1="141" x2="124.8" y2="166.7"/>
			<line class="st10" x1="111" y1="154.9" x2="136.7" y2="152.8"/>
		</g>
		<g class="st5">
			<line class="st4" x1="71.9" y1="31.2" x2="72.8" y2="42.3"/>
			<line class="st4" x1="66.8" y1="37.2" x2="77.9" y2="36.3"/>
		</g>
		<g class="st5">
			<line class="st4" x1="192" y1="108.8" x2="192.9" y2="119.9"/>
			<line class="st4" x1="186.9" y1="114.8" x2="198" y2="113.9"/>
		</g>
		<g class="st5">
			<line class="st8" x1="192.4" y1="62.4" x2="192.4" y2="68.8"/>
			<line class="st8" x1="224.2" y1="50.4" x2="224.2" y2="75.5"/>
			<line class="st8" x1="240.1" y1="64.5" x2="240.1" y2="70.9"/>
			<line class="st8" x1="203" y1="55.9" x2="203" y2="74.6"/>
			<line class="st8" x1="197.7" y1="60.7" x2="197.7" y2="70.6"/>
			<line class="st8" x1="229.5" y1="53.8" x2="229.5" y2="72.6"/>
			<line class="st8" x1="234.8" y1="62" x2="234.8" y2="76"/>
			<line class="st8" x1="218.9" y1="44.7" x2="218.9" y2="69.8"/>
			<line class="st8" x1="213.6" y1="57.3" x2="213.6" y2="76"/>
			<line class="st8" x1="208.3" y1="51.3" x2="208.3" y2="70"/>
		</g>
		<g class="st5">
			<line class="st8" x1="-11.5" y1="268.5" x2="-11.5" y2="274.9"/>
			<line class="st8" x1="20.3" y1="256.5" x2="20.3" y2="281.6"/>
			<line class="st8" x1="36.2" y1="270.6" x2="36.2" y2="277"/>
			<line class="st8" x1="-0.9" y1="262" x2="-0.9" y2="280.7"/>
			<line class="st8" x1="-6.2" y1="266.8" x2="-6.2" y2="276.7"/>
			<line class="st8" x1="25.6" y1="259.9" x2="25.6" y2="278.7"/>
			<line class="st8" x1="30.9" y1="268.1" x2="30.9" y2="282.1"/>
			<line class="st8" x1="15" y1="250.8" x2="15" y2="275.9"/>
			<line class="st8" x1="9.7" y1="263.4" x2="9.7" y2="282.1"/>
			<line class="st8" x1="4.4" y1="257.4" x2="4.4" y2="276.1"/>
		</g>
	</g>
	<g>
		<g>
			<g>
				<defs>
					<path id="SVGID_1_" d="M-33.7-36.9C231-69.4,500.7-60.3,762.6-10c38.6,7.4,77.8,15.7,116.9,11.6
						c-15.1,50.4-23.7,102.7-25.4,155.3c-0.4,11.8-3.8,23.4-5,35.2c-0.4,3.4-0.9,9.4-3.9,16.5c-3.2,7.6-7.6,13-9.2,14.6
						c-12.6,12.6-50.2-7.7-91.9-19.1c-34.9-9.6-28.1-0.7-73.5-10.7c-55.3-12.2-94.7-20.9-111.1-48.3c-3.5-5.8-9.3-18.1-21.5-21.4
						c-9.2-2.5-14.5,2.2-25.3,1.5c-15.3-0.9-25.1-11.8-31.4-16.8c-25.6-20.6-58.8,1.4-144.8,3.8c-34.5,1-42.1-2.2-68.9,2.3
						c-22.1,3.7-42.9,7.2-64.3,20.7c-34.7,21.8-31.3,44.7-61,56.3c-20.1,7.9-20.8-3-57.8,1.2C42.2,197.5,28,213.5-9,210
						c-9.4-0.9-20.9-3-31.4-10.8c-8-6-13.2-14.9-18.3-23.5c-35-60-70.7-122.3-78.4-191.4c-1.8-15.7,1.3-36.2,16.7-39.8
						c6.1-1.4,12.4,0.5,18.3,2.4c24.7,7.8,49.3,15.7,73.9,23.5L-33.7-36.9z"/>
				</defs>
				<clipPath id="SVGID_2_">
					<use xlink:href="#SVGID_1_"  style="overflow:visible;"/>
				</clipPath>
				<g class="st11">
					<g>
						<g>
							<g class="st12">
								<line class="st13" x1="285.3" y1="49.4" x2="285.3" y2="62.7"/>
								<line class="st13" x1="351.2" y1="24.6" x2="351.2" y2="76.6"/>
								<line class="st13" x1="384.2" y1="53.9" x2="384.2" y2="67.1"/>
								<line class="st13" x1="307.3" y1="36" x2="307.3" y2="74.8"/>
								<line class="st13" x1="296.3" y1="45.9" x2="296.3" y2="66.5"/>
								<line class="st13" x1="362.2" y1="31.7" x2="362.2" y2="70.5"/>
								<line class="st13" x1="373.2" y1="48.6" x2="373.2" y2="77.7"/>
								<line class="st13" x1="340.2" y1="12.7" x2="340.2" y2="64.8"/>
								<line class="st13" x1="329.2" y1="38.9" x2="329.2" y2="77.8"/>
								<line class="st13" x1="318.2" y1="26.5" x2="318.2" y2="65.3"/>
							</g>
							<g class="st14">
								<path class="st15" d="M330.5-1.3c-0.1,1.1-0.2,2.4-0.2,3.7c0,1.7,0.1,3.2,0.2,4.5"/>
								<path class="st15" d="M333.8-0.8l-3,3c0,0,2.8,1.6,2.6,4.8"/>
								<line class="st15" x1="335.4" y1="3.1" x2="339.4" y2="3.1"/>
								<line class="st15" x1="341.5" y1="6.8" x2="341.5" y2="-0.8"/>
								<line class="st15" x1="355.5" y1="7.1" x2="355" y2="-1"/>
								<path class="st15" d="M341.8-0.4c0.6-1.2,4.1-1.5,4.3,1S342,2.9,342,2.9"/>
								<path class="st15" d="M355.1,0.4c1.1-2.7,4.2-1.8,4.4,0.8s-3.8,2-3.8,2"/>
								<path class="st15" d="M352.8,2.3c0.4,1.8-0.2,3.6-1.7,3.9c-1.4,0.3-2.7-0.8-3.1-2.6s0.2-4.2,1.6-4.5S352.4,0.5,352.8,2.3z"
									/>
							</g>
							<g>
								<path class="st16" d="M251.6,80.1c0.2,2.1,0.5,4.3,1,6.8c0.6,3,1.3,5.7,2.1,8"/>
								<path class="st16" d="M257.8,79.7l-4.2,6.6c0,0,5.5,1.8,6.5,7.5"/>
								<line class="st16" x1="262" y1="86.1" x2="269.2" y2="84.6"/>
								<line class="st16" x1="274.4" y1="90.4" x2="271.5" y2="76.8"/>
								<line class="st16" x1="299.5" y1="85.7" x2="295.6" y2="71.5"/>
								<path class="st16" d="M272.1,77.4c0.7-2.3,6.7-4.3,8,0.2s-6.4,5.6-6.4,5.6"/>
								<path class="st16" d="M296.3,73.9c1-5.3,6.9-4.8,8.2-0.3s-6.1,5.1-6.1,5.1"/>
								<path class="st16" d="M292.8,78.2c1.4,3,1,6.6-1.5,7.7c-2.4,1.1-5.1-0.4-6.5-3.5c-1.4-3-1.3-7.5,1.2-8.6
									S291.5,75.1,292.8,78.2z"/>
							</g>
							<g class="st17">
								<line class="st18" x1="343.1" y1="86.1" x2="344.8" y2="107.2"/>
								<line class="st18" x1="333.4" y1="97.5" x2="354.5" y2="95.8"/>
							</g>
							<g>
								<line class="st16" x1="377.4" y1="12.9" x2="378.1" y2="22"/>
								<line class="st16" x1="373.2" y1="17.8" x2="382.3" y2="17.1"/>
							</g>
							<g>
								<line class="st19" x1="263.5" y1="14" x2="263.5" y2="18.1"/>
								<line class="st19" x1="283.8" y1="6.4" x2="283.8" y2="22.4"/>
								<line class="st19" x1="294" y1="15.4" x2="294" y2="19.5"/>
								<line class="st19" x1="270.3" y1="9.9" x2="270.3" y2="21.9"/>
								<line class="st19" x1="266.9" y1="12.9" x2="266.9" y2="19.3"/>
								<line class="st19" x1="287.2" y1="8.6" x2="287.2" y2="20.5"/>
								<line class="st19" x1="290.6" y1="13.8" x2="290.6" y2="22.7"/>
								<line class="st19" x1="280.4" y1="2.7" x2="280.4" y2="18.8"/>
								<line class="st19" x1="277.1" y1="10.8" x2="277.1" y2="22.8"/>
								<line class="st19" x1="273.7" y1="6.9" x2="273.7" y2="18.9"/>
							</g>
						</g>
						<g>
							<g class="st12">
								<line class="st13" x1="148.5" y1="49.4" x2="148.5" y2="62.7"/>
								<line class="st13" x1="214.4" y1="24.6" x2="214.4" y2="76.6"/>
								<line class="st13" x1="247.4" y1="53.9" x2="247.4" y2="67.1"/>
								<line class="st13" x1="170.4" y1="36" x2="170.4" y2="74.8"/>
								<line class="st13" x1="159.5" y1="45.9" x2="159.5" y2="66.5"/>
								<line class="st13" x1="225.4" y1="31.7" x2="225.4" y2="70.5"/>
								<line class="st13" x1="236.4" y1="48.6" x2="236.4" y2="77.7"/>
								<line class="st13" x1="203.4" y1="12.7" x2="203.4" y2="64.8"/>
								<line class="st13" x1="192.4" y1="38.9" x2="192.4" y2="77.8"/>
								<line class="st13" x1="181.4" y1="26.5" x2="181.4" y2="65.3"/>
							</g>
							<g class="st14">
								<path class="st15" d="M193.7-1.3c-0.1,1.1-0.2,2.4-0.2,3.7c0,1.7,0.1,3.2,0.2,4.5"/>
								<path class="st15" d="M197-0.8l-3,3c0,0,2.8,1.6,2.6,4.8"/>
								<line class="st15" x1="198.6" y1="3.1" x2="202.6" y2="3.1"/>
								<line class="st15" x1="204.7" y1="6.8" x2="204.7" y2="-0.8"/>
								<line class="st15" x1="218.7" y1="7.1" x2="218.2" y2="-1"/>
								<path class="st15" d="M205-0.4c0.6-1.2,4.1-1.5,4.3,1s-4.1,2.3-4.1,2.3"/>
								<path class="st15" d="M218.3,0.4c1.1-2.7,4.2-1.8,4.4,0.8s-3.8,2-3.8,2"/>
								<path class="st15" d="M216,2.3c0.4,1.8-0.2,3.6-1.7,3.9c-1.4,0.3-2.7-0.8-3.1-2.6s0.2-4.2,1.6-4.5
									C214.3-1.1,215.6,0.5,216,2.3z"/>
							</g>
							<g>
								<path class="st16" d="M114.8,80.1c0.2,2.1,0.5,4.3,1,6.8c0.6,3,1.3,5.7,2.1,8"/>
								<path class="st16" d="M121,79.7l-4.2,6.6c0,0,5.5,1.8,6.5,7.5"/>
								<line class="st16" x1="125.2" y1="86.1" x2="132.4" y2="84.6"/>
								<line class="st16" x1="137.6" y1="90.4" x2="134.7" y2="76.8"/>
								<line class="st16" x1="162.7" y1="85.7" x2="158.8" y2="71.5"/>
								<path class="st16" d="M135.3,77.4c0.7-2.3,6.7-4.3,8,0.2s-6.4,5.6-6.4,5.6"/>
								<path class="st16" d="M159.5,73.9c1-5.3,6.9-4.8,8.2-0.3s-6.1,5.1-6.1,5.1"/>
								<path class="st16" d="M156,78.2c1.4,3,0.9,6.6-1.5,7.7s-5.1-0.4-6.5-3.5c-1.4-3-1.3-7.5,1.2-8.6S154.7,75.1,156,78.2z"/>
							</g>
							<g class="st17">
								<line class="st18" x1="206.3" y1="86.1" x2="208" y2="107.2"/>
								<line class="st18" x1="196.6" y1="97.5" x2="217.7" y2="95.8"/>
							</g>
							<g>
								<line class="st16" x1="240.6" y1="12.9" x2="241.3" y2="22"/>
								<line class="st16" x1="236.4" y1="17.8" x2="245.5" y2="17.1"/>
							</g>
							<g>
								<line class="st19" x1="126.7" y1="14" x2="126.7" y2="18.1"/>
								<line class="st19" x1="147" y1="6.4" x2="147" y2="22.4"/>
								<line class="st19" x1="157.2" y1="15.4" x2="157.2" y2="19.5"/>
								<line class="st19" x1="133.5" y1="9.9" x2="133.5" y2="21.9"/>
								<line class="st19" x1="130.1" y1="12.9" x2="130.1" y2="19.3"/>
								<line class="st19" x1="150.4" y1="8.6" x2="150.4" y2="20.5"/>
								<line class="st19" x1="153.8" y1="13.8" x2="153.8" y2="22.7"/>
								<line class="st19" x1="143.6" y1="2.7" x2="143.6" y2="18.8"/>
								<line class="st19" x1="140.3" y1="10.8" x2="140.3" y2="22.8"/>
								<line class="st19" x1="136.9" y1="6.9" x2="136.9" y2="18.9"/>
							</g>
						</g>
						<g>
							<g class="st12">
								<line class="st13" x1="11.7" y1="49.4" x2="11.7" y2="62.7"/>
								<line class="st13" x1="77.6" y1="24.6" x2="77.6" y2="76.6"/>
								<line class="st13" x1="110.6" y1="53.9" x2="110.6" y2="67.1"/>
								<line class="st13" x1="33.7" y1="36" x2="33.7" y2="74.8"/>
								<line class="st13" x1="22.7" y1="45.9" x2="22.7" y2="66.5"/>
								<line class="st13" x1="88.6" y1="31.7" x2="88.6" y2="70.5"/>
								<line class="st13" x1="99.6" y1="48.6" x2="99.6" y2="77.7"/>
								<line class="st13" x1="66.6" y1="12.7" x2="66.6" y2="64.8"/>
								<line class="st13" x1="55.6" y1="38.9" x2="55.6" y2="77.8"/>
								<line class="st13" x1="44.7" y1="26.5" x2="44.7" y2="65.3"/>
							</g>
							<g class="st14">
								<path class="st15" d="M56.9-1.3c-0.1,1.1-0.2,2.4-0.2,3.7c0,1.7,0.1,3.2,0.2,4.5"/>
								<path class="st15" d="M60.2-0.8l-3,3c0,0,2.8,1.6,2.6,4.8"/>
								<line class="st15" x1="61.8" y1="3.1" x2="65.8" y2="3.1"/>
								<line class="st15" x1="67.9" y1="6.8" x2="67.9" y2="-0.8"/>
								<line class="st15" x1="81.9" y1="7.1" x2="81.4" y2="-1"/>
								<path class="st15" d="M68.2-0.4c0.6-1.2,4.1-1.5,4.3,1s-4.1,2.3-4.1,2.3"/>
								<path class="st15" d="M81.5,0.4c1.1-2.7,4.2-1.8,4.4,0.8s-3.8,2-3.8,2"/>
								<path class="st15" d="M79.2,2.3c0.4,1.8-0.2,3.6-1.7,3.9c-1.4,0.3-2.7-0.8-3.1-2.6s0.2-4.2,1.6-4.5S78.8,0.5,79.2,2.3z"/>
							</g>
							<g>
								<path class="st16" d="M-22,80.1c0.2,2.1,0.5,4.3,1,6.8c0.6,3,1.3,5.7,2.1,8"/>
								<path class="st16" d="M-15.8,79.7l-4.2,6.6c0,0,5.5,1.8,6.5,7.5"/>
								<line class="st16" x1="-11.6" y1="86.1" x2="-4.4" y2="84.6"/>
								<line class="st16" x1="0.8" y1="90.4" x2="-2.1" y2="76.8"/>
								<line class="st16" x1="25.9" y1="85.7" x2="22" y2="71.5"/>
								<path class="st16" d="M-1.5,77.4c0.7-2.3,6.7-4.3,8,0.2s-6.4,5.6-6.4,5.6"/>
								<path class="st16" d="M22.7,73.9c1-5.3,6.9-4.8,8.2-0.3c1.3,4.5-6.1,5.1-6.1,5.1"/>
								<path class="st16" d="M19.2,78.2c1.4,3,1,6.6-1.5,7.7c-2.4,1.1-5.1-0.4-6.5-3.5c-1.4-3-1.3-7.5,1.2-8.6S17.9,75.1,19.2,78.2
									z"/>
							</g>
							<g class="st17">
								<line class="st18" x1="69.5" y1="86.1" x2="71.2" y2="107.2"/>
								<line class="st18" x1="59.8" y1="97.5" x2="80.9" y2="95.8"/>
							</g>
							<g>
								<line class="st16" x1="103.8" y1="12.9" x2="104.5" y2="22"/>
								<line class="st16" x1="99.6" y1="17.8" x2="108.7" y2="17.1"/>
							</g>
							<g>
								<line class="st19" x1="-10.1" y1="14" x2="-10.1" y2="18.1"/>
								<line class="st19" x1="10.2" y1="6.4" x2="10.2" y2="22.4"/>
								<line class="st19" x1="20.4" y1="15.4" x2="20.4" y2="19.5"/>
								<line class="st19" x1="-3.3" y1="9.9" x2="-3.3" y2="21.9"/>
								<line class="st19" x1="-6.7" y1="12.9" x2="-6.7" y2="19.3"/>
								<line class="st19" x1="13.6" y1="8.6" x2="13.6" y2="20.5"/>
								<line class="st19" x1="17" y1="13.8" x2="17" y2="22.7"/>
								<line class="st19" x1="6.9" y1="2.7" x2="6.9" y2="18.8"/>
								<line class="st19" x1="3.5" y1="10.8" x2="3.5" y2="22.8"/>
								<line class="st19" x1="0.1" y1="6.9" x2="0.1" y2="18.9"/>
							</g>
						</g>
						<g>
							<g class="st12">
								<line class="st13" x1="-125.1" y1="49.4" x2="-125.1" y2="62.7"/>
								<line class="st13" x1="-59.2" y1="24.6" x2="-59.2" y2="76.6"/>
								<line class="st13" x1="-26.2" y1="53.9" x2="-26.2" y2="67.1"/>
								<line class="st13" x1="-103.1" y1="36" x2="-103.1" y2="74.8"/>
								<line class="st13" x1="-114.1" y1="45.9" x2="-114.1" y2="66.5"/>
								<line class="st13" x1="-48.2" y1="31.7" x2="-48.2" y2="70.5"/>
								<line class="st13" x1="-37.2" y1="48.6" x2="-37.2" y2="77.7"/>
								<line class="st13" x1="-70.2" y1="12.7" x2="-70.2" y2="64.8"/>
								<line class="st13" x1="-81.2" y1="38.9" x2="-81.2" y2="77.8"/>
								<line class="st13" x1="-92.2" y1="26.5" x2="-92.2" y2="65.3"/>
							</g>
							<g class="st14">
								<path class="st15" d="M-79.9-1.3c-0.1,1.1-0.2,2.4-0.2,3.7c0,1.7,0.1,3.2,0.2,4.5"/>
								<path class="st15" d="M-76.6-0.8l-3,3c0,0,2.8,1.6,2.6,4.8"/>
								<line class="st15" x1="-75" y1="3.1" x2="-71" y2="3.1"/>
								<line class="st15" x1="-68.9" y1="6.8" x2="-68.9" y2="-0.8"/>
								<line class="st15" x1="-54.9" y1="7.1" x2="-55.4" y2="-1"/>
								<path class="st15" d="M-68.6-0.4c0.6-1.2,4.1-1.5,4.3,1s-4.1,2.3-4.1,2.3"/>
								<path class="st15" d="M-55.3,0.4c1.1-2.7,4.2-1.8,4.4,0.8s-3.8,2-3.8,2"/>
								<path class="st15" d="M-57.6,2.3c0.4,1.8-0.2,3.6-1.7,3.9c-1.4,0.3-2.7-0.8-3.1-2.6s0.2-4.2,1.6-4.5S-58,0.5-57.6,2.3z"/>
							</g>
							<g>
								<path class="st16" d="M-158.8,80.1c0.2,2.1,0.5,4.3,1,6.8c0.6,3,1.3,5.7,2.1,8"/>
								<path class="st16" d="M-152.6,79.7l-4.2,6.6c0,0,5.5,1.8,6.5,7.5"/>
								<line class="st16" x1="-148.4" y1="86.1" x2="-141.2" y2="84.6"/>
								<line class="st16" x1="-136" y1="90.4" x2="-138.9" y2="76.8"/>
								<line class="st16" x1="-110.9" y1="85.7" x2="-114.8" y2="71.5"/>
								<path class="st16" d="M-138.3,77.4c0.7-2.3,6.7-4.3,8,0.2s-6.4,5.6-6.4,5.6"/>
								<path class="st16" d="M-114.1,73.9c1-5.3,6.9-4.8,8.2-0.3s-6.1,5.1-6.1,5.1"/>
								<path class="st16" d="M-117.6,78.2c1.3,3,0.9,6.6-1.5,7.7s-5.1-0.4-6.5-3.5c-1.3-3-1.3-7.5,1.2-8.6S-118.9,75.1-117.6,78.2z
									"/>
							</g>
							<g class="st17">
								<line class="st18" x1="-67.3" y1="86.1" x2="-65.6" y2="107.2"/>
								<line class="st18" x1="-77" y1="97.5" x2="-55.9" y2="95.8"/>
							</g>
							<g>
								<line class="st16" x1="-33" y1="12.9" x2="-32.3" y2="22"/>
								<line class="st16" x1="-37.2" y1="17.8" x2="-28.1" y2="17.1"/>
							</g>
							<g>
								<line class="st19" x1="-146.9" y1="14" x2="-146.9" y2="18.1"/>
								<line class="st19" x1="-126.6" y1="6.4" x2="-126.6" y2="22.4"/>
								<line class="st19" x1="-116.4" y1="15.4" x2="-116.4" y2="19.5"/>
								<line class="st19" x1="-140.1" y1="9.9" x2="-140.1" y2="21.9"/>
								<line class="st19" x1="-143.5" y1="12.9" x2="-143.5" y2="19.3"/>
								<line class="st19" x1="-123.2" y1="8.6" x2="-123.2" y2="20.5"/>
								<line class="st19" x1="-119.8" y1="13.8" x2="-119.8" y2="22.7"/>
								<line class="st19" x1="-129.9" y1="2.7" x2="-129.9" y2="18.8"/>
								<line class="st19" x1="-133.3" y1="10.8" x2="-133.3" y2="22.8"/>
								<line class="st19" x1="-136.7" y1="6.9" x2="-136.7" y2="18.9"/>
							</g>
						</g>
						<g>
							<g class="st12">
								<line class="st13" x1="312.8" y1="160.5" x2="312.8" y2="173.7"/>
								<line class="st13" x1="378.8" y1="135.6" x2="378.8" y2="187.7"/>
								<line class="st13" x1="411.7" y1="164.9" x2="411.7" y2="178.1"/>
								<line class="st13" x1="334.8" y1="147.1" x2="334.8" y2="185.9"/>
								<line class="st13" x1="323.8" y1="156.9" x2="323.8" y2="177.5"/>
								<line class="st13" x1="389.8" y1="142.8" x2="389.8" y2="181.6"/>
								<line class="st13" x1="400.7" y1="159.6" x2="400.7" y2="188.7"/>
								<line class="st13" x1="367.8" y1="123.8" x2="367.8" y2="175.8"/>
								<line class="st13" x1="356.8" y1="150" x2="356.8" y2="188.8"/>
								<line class="st13" x1="345.8" y1="137.5" x2="345.8" y2="176.4"/>
							</g>
							<g class="st14">
								<path class="st15" d="M358.1,109.8c-0.1,1.1-0.2,2.4-0.2,3.7c0,1.7,0.1,3.2,0.2,4.5"/>
								<path class="st15" d="M361.4,110.2l-3,3c0,0,2.8,1.6,2.6,4.8"/>
								<line class="st15" x1="362.9" y1="114.1" x2="367" y2="114.1"/>
								<line class="st15" x1="369.1" y1="117.8" x2="369.1" y2="110.2"/>
								<line class="st15" x1="383" y1="118.1" x2="382.5" y2="110.1"/>
								<path class="st15" d="M369.3,110.6c0.6-1.2,4.1-1.6,4.3,1c0.2,2.6-4.1,2.3-4.1,2.3"/>
								<path class="st15" d="M382.6,111.5c1.1-2.7,4.2-1.8,4.4,0.8s-3.8,2-3.8,2"/>
								<path class="st15" d="M380.3,113.4c0.4,1.8-0.2,3.6-1.7,3.9c-1.4,0.3-2.7-0.8-3.1-2.6s0.2-4.2,1.6-4.5
									C378.6,109.9,379.9,111.6,380.3,113.4z"/>
							</g>
							<g>
								<path class="st16" d="M279.2,191.2c0.2,2.1,0.5,4.3,1,6.8c0.6,3,1.3,5.7,2.1,8"/>
								<path class="st16" d="M285.3,190.7l-4.2,6.6c0,0,5.5,1.8,6.5,7.5"/>
								<line class="st16" x1="289.5" y1="197.1" x2="296.7" y2="195.6"/>
								<line class="st16" x1="301.9" y1="201.4" x2="299.1" y2="187.9"/>
								<line class="st16" x1="327.1" y1="196.7" x2="323.1" y2="182.5"/>
								<path class="st16" d="M299.6,188.5c0.7-2.3,6.7-4.3,8,0.2s-6.4,5.6-6.4,5.6"/>
								<path class="st16" d="M323.8,184.9c1-5.3,6.9-4.8,8.2-0.3c1.3,4.5-6.1,5.1-6.1,5.1"/>
								<path class="st16" d="M320.4,189.2c1.4,3,1,6.6-1.5,7.7c-2.4,1.1-5.1-0.4-6.5-3.5s-1.3-7.5,1.2-8.6S319,186.2,320.4,189.2z"
									/>
							</g>
							<g class="st17">
								<line class="st18" x1="370.6" y1="197.1" x2="372.3" y2="218.3"/>
								<line class="st18" x1="360.9" y1="208.5" x2="382" y2="206.9"/>
							</g>
							<g>
								<line class="st16" x1="404.9" y1="123.9" x2="405.7" y2="133"/>
								<line class="st16" x1="400.7" y1="128.8" x2="409.9" y2="128.1"/>
							</g>
							<g>
								<line class="st19" x1="291" y1="125.1" x2="291" y2="129.1"/>
								<line class="st19" x1="311.4" y1="117.4" x2="311.4" y2="133.4"/>
								<line class="st19" x1="321.5" y1="126.4" x2="321.5" y2="130.5"/>
								<line class="st19" x1="297.8" y1="120.9" x2="297.8" y2="132.9"/>
								<line class="st19" x1="294.4" y1="124" x2="294.4" y2="130.3"/>
								<line class="st19" x1="314.8" y1="119.6" x2="314.8" y2="131.6"/>
								<line class="st19" x1="318.2" y1="124.8" x2="318.2" y2="133.8"/>
								<line class="st19" x1="308" y1="113.8" x2="308" y2="129.8"/>
								<line class="st19" x1="304.6" y1="121.8" x2="304.6" y2="133.8"/>
								<line class="st19" x1="301.2" y1="118" x2="301.2" y2="130"/>
							</g>
						</g>
						<g>
							<g class="st12">
								<line class="st13" x1="176" y1="160.5" x2="176" y2="173.7"/>
								<line class="st13" x1="242" y1="135.6" x2="242" y2="187.7"/>
								<line class="st13" x1="274.9" y1="164.9" x2="274.9" y2="178.1"/>
								<line class="st13" x1="198" y1="147.1" x2="198" y2="185.9"/>
								<line class="st13" x1="187" y1="156.9" x2="187" y2="177.5"/>
								<line class="st13" x1="253" y1="142.8" x2="253" y2="181.6"/>
								<line class="st13" x1="264" y1="159.6" x2="264" y2="188.7"/>
								<line class="st13" x1="231" y1="123.8" x2="231" y2="175.8"/>
								<line class="st13" x1="220" y1="150" x2="220" y2="188.8"/>
								<line class="st13" x1="209" y1="137.5" x2="209" y2="176.4"/>
							</g>
							<g class="st14">
								<path class="st15" d="M221.3,109.8c-0.1,1.1-0.2,2.4-0.2,3.7c0,1.7,0.1,3.2,0.2,4.5"/>
								<path class="st15" d="M224.6,110.2l-3,3c0,0,2.8,1.6,2.6,4.8"/>
								<line class="st15" x1="226.1" y1="114.1" x2="230.1" y2="114.1"/>
								<line class="st15" x1="232.3" y1="117.8" x2="232.3" y2="110.2"/>
								<line class="st15" x1="246.3" y1="118.1" x2="245.8" y2="110.1"/>
								<path class="st15" d="M232.5,110.6c0.6-1.2,4.1-1.6,4.3,1s-4.1,2.3-4.1,2.3"/>
								<path class="st15" d="M245.8,111.5c1.1-2.7,4.2-1.8,4.4,0.8c0.2,2.6-3.8,2-3.8,2"/>
								<path class="st15" d="M243.5,113.4c0.4,1.8-0.2,3.6-1.7,3.9c-1.4,0.3-2.7-0.8-3.1-2.6s0.2-4.2,1.6-4.5
									C241.8,109.9,243.1,111.6,243.5,113.4z"/>
							</g>
							<g>
								<path class="st16" d="M142.4,191.2c0.2,2.1,0.5,4.3,1,6.8c0.6,3,1.3,5.7,2.1,8"/>
								<path class="st16" d="M148.5,190.7l-4.2,6.6c0,0,5.5,1.8,6.5,7.5"/>
								<line class="st16" x1="152.7" y1="197.1" x2="159.9" y2="195.6"/>
								<line class="st16" x1="165.1" y1="201.4" x2="162.3" y2="187.9"/>
								<line class="st16" x1="190.3" y1="196.7" x2="186.4" y2="182.5"/>
								<path class="st16" d="M162.8,188.5c0.7-2.3,6.7-4.3,8,0.2s-6.4,5.6-6.4,5.6"/>
								<path class="st16" d="M187,184.9c1-5.3,6.9-4.8,8.2-0.3s-6.1,5.1-6.1,5.1"/>
								<path class="st16" d="M183.6,189.2c1.4,3,0.9,6.6-1.5,7.7c-2.4,1.1-5.1-0.4-6.5-3.5s-1.3-7.5,1.2-8.6
									S182.2,186.2,183.6,189.2z"/>
							</g>
							<g class="st17">
								<line class="st18" x1="233.9" y1="197.1" x2="235.5" y2="218.3"/>
								<line class="st18" x1="224.1" y1="208.5" x2="245.3" y2="206.9"/>
							</g>
							<g>
								<line class="st16" x1="268.1" y1="123.9" x2="268.9" y2="133"/>
								<line class="st16" x1="264" y1="128.8" x2="273.1" y2="128.1"/>
							</g>
							<g>
								<line class="st19" x1="154.3" y1="125.1" x2="154.3" y2="129.1"/>
								<line class="st19" x1="174.6" y1="117.4" x2="174.6" y2="133.4"/>
								<line class="st19" x1="184.8" y1="126.4" x2="184.8" y2="130.5"/>
								<line class="st19" x1="161" y1="120.9" x2="161" y2="132.9"/>
								<line class="st19" x1="157.6" y1="124" x2="157.6" y2="130.3"/>
								<line class="st19" x1="178" y1="119.6" x2="178" y2="131.6"/>
								<line class="st19" x1="181.4" y1="124.8" x2="181.4" y2="133.8"/>
								<line class="st19" x1="171.2" y1="113.8" x2="171.2" y2="129.8"/>
								<line class="st19" x1="167.8" y1="121.8" x2="167.8" y2="133.8"/>
								<line class="st19" x1="164.4" y1="118" x2="164.4" y2="130"/>
							</g>
						</g>
						<g>
							<g class="st12">
								<line class="st13" x1="39.2" y1="160.5" x2="39.2" y2="173.7"/>
								<line class="st13" x1="105.2" y1="135.6" x2="105.2" y2="187.7"/>
								<line class="st13" x1="138.1" y1="164.9" x2="138.1" y2="178.1"/>
								<line class="st13" x1="61.2" y1="147.1" x2="61.2" y2="185.9"/>
								<line class="st13" x1="50.2" y1="156.9" x2="50.2" y2="177.5"/>
								<line class="st13" x1="116.2" y1="142.8" x2="116.2" y2="181.6"/>
								<line class="st13" x1="127.2" y1="159.6" x2="127.2" y2="188.7"/>
								<line class="st13" x1="94.2" y1="123.8" x2="94.2" y2="175.8"/>
								<line class="st13" x1="83.2" y1="150" x2="83.2" y2="188.8"/>
								<line class="st13" x1="72.2" y1="137.5" x2="72.2" y2="176.4"/>
							</g>
							<g class="st14">
								<path class="st15" d="M84.5,109.8c-0.1,1.1-0.2,2.4-0.2,3.7c0,1.7,0.1,3.2,0.2,4.5"/>
								<path class="st15" d="M87.8,110.2l-3,3c0,0,2.8,1.6,2.6,4.8"/>
								<line class="st15" x1="89.3" y1="114.1" x2="93.4" y2="114.1"/>
								<line class="st15" x1="95.5" y1="117.8" x2="95.5" y2="110.2"/>
								<line class="st15" x1="109.4" y1="118.1" x2="109" y2="110.1"/>
								<path class="st15" d="M95.7,110.6c0.6-1.2,4.1-1.6,4.3,1s-4.1,2.3-4.1,2.3"/>
								<path class="st15" d="M109.1,111.5c1.1-2.7,4.2-1.8,4.4,0.8s-3.8,2-3.8,2"/>
								<path class="st15" d="M106.7,113.4c0.4,1.8-0.2,3.6-1.7,3.9c-1.4,0.3-2.7-0.8-3.1-2.6s0.2-4.2,1.6-4.5
									S106.3,111.6,106.7,113.4z"/>
							</g>
							<g>
								<path class="st16" d="M5.6,191.2c0.2,2.1,0.5,4.3,1,6.8c0.6,3,1.3,5.7,2.1,8"/>
								<path class="st16" d="M11.7,190.7l-4.2,6.6c0,0,5.5,1.8,6.5,7.5"/>
								<line class="st16" x1="15.9" y1="197.1" x2="23.1" y2="195.6"/>
								<line class="st16" x1="28.4" y1="201.4" x2="25.5" y2="187.9"/>
								<line class="st16" x1="53.5" y1="196.7" x2="49.5" y2="182.5"/>
								<path class="st16" d="M26,188.5c0.7-2.3,6.7-4.3,8,0.2s-6.4,5.6-6.4,5.6"/>
								<path class="st16" d="M50.2,184.9c1-5.3,6.9-4.8,8.2-0.3s-6.1,5.1-6.1,5.1"/>
								<path class="st16" d="M46.8,189.2c1.3,3,1,6.6-1.5,7.7c-2.4,1.1-5.1-0.4-6.5-3.5c-1.3-3-1.3-7.5,1.2-8.6
									S45.4,186.2,46.8,189.2z"/>
							</g>
							<g class="st17">
								<line class="st18" x1="97.1" y1="197.1" x2="98.7" y2="218.3"/>
								<line class="st18" x1="87.3" y1="208.5" x2="108.4" y2="206.9"/>
							</g>
							<g>
								<line class="st16" x1="131.4" y1="123.9" x2="132.1" y2="133"/>
								<line class="st16" x1="127.2" y1="128.8" x2="136.3" y2="128.1"/>
							</g>
							<g>
								<line class="st19" x1="17.5" y1="125.1" x2="17.5" y2="129.1"/>
								<line class="st19" x1="37.8" y1="117.4" x2="37.8" y2="133.4"/>
								<line class="st19" x1="48" y1="126.4" x2="48" y2="130.5"/>
								<line class="st19" x1="24.2" y1="120.9" x2="24.2" y2="132.9"/>
								<line class="st19" x1="20.9" y1="124" x2="20.9" y2="130.3"/>
								<line class="st19" x1="41.2" y1="119.6" x2="41.2" y2="131.6"/>
								<line class="st19" x1="44.6" y1="124.8" x2="44.6" y2="133.8"/>
								<line class="st19" x1="34.4" y1="113.8" x2="34.4" y2="129.8"/>
								<line class="st19" x1="31" y1="121.8" x2="31" y2="133.8"/>
								<line class="st19" x1="27.6" y1="118" x2="27.6" y2="130"/>
							</g>
						</g>
						<g>
							<g class="st12">
								<line class="st13" x1="-97.6" y1="160.5" x2="-97.6" y2="173.7"/>
								<line class="st13" x1="-31.6" y1="135.6" x2="-31.6" y2="187.7"/>
								<line class="st13" x1="1.4" y1="164.9" x2="1.4" y2="178.1"/>
								<line class="st13" x1="-75.6" y1="147.1" x2="-75.6" y2="185.9"/>
								<line class="st13" x1="-86.6" y1="156.9" x2="-86.6" y2="177.5"/>
								<line class="st13" x1="-20.6" y1="142.8" x2="-20.6" y2="181.6"/>
								<line class="st13" x1="-9.6" y1="159.6" x2="-9.6" y2="188.7"/>
								<line class="st13" x1="-42.6" y1="123.8" x2="-42.6" y2="175.8"/>
								<line class="st13" x1="-53.6" y1="150" x2="-53.6" y2="188.8"/>
								<line class="st13" x1="-64.6" y1="137.5" x2="-64.6" y2="176.4"/>
							</g>
							<g class="st14">
								<path class="st15" d="M-52.3,109.8c-0.1,1.1-0.2,2.4-0.2,3.7c0,1.7,0.1,3.2,0.2,4.5"/>
								<path class="st15" d="M-49,110.2l-3,3c0,0,2.8,1.6,2.6,4.8"/>
								<line class="st15" x1="-47.5" y1="114.1" x2="-43.4" y2="114.1"/>
								<line class="st15" x1="-41.3" y1="117.8" x2="-41.3" y2="110.2"/>
								<line class="st15" x1="-27.3" y1="118.1" x2="-27.8" y2="110.1"/>
								<path class="st15" d="M-41.1,110.6c0.6-1.2,4.1-1.6,4.3,1s-4.1,2.3-4.1,2.3"/>
								<path class="st15" d="M-27.8,111.5c1.1-2.7,4.2-1.8,4.4,0.8c0.2,2.6-3.8,2-3.8,2"/>
								<path class="st15" d="M-30.1,113.4c0.4,1.8-0.2,3.6-1.7,3.9c-1.4,0.3-2.7-0.8-3.1-2.6s0.2-4.2,1.6-4.5
									C-31.8,109.9-30.5,111.6-30.1,113.4z"/>
							</g>
							<g>
								<path class="st16" d="M-131.2,191.2c0.2,2.1,0.5,4.3,1,6.8c0.6,3,1.3,5.7,2.1,8"/>
								<path class="st16" d="M-125.1,190.7l-4.2,6.6c0,0,5.5,1.8,6.5,7.5"/>
								<line class="st16" x1="-120.8" y1="197.1" x2="-113.6" y2="195.6"/>
								<line class="st16" x1="-108.4" y1="201.4" x2="-111.3" y2="187.9"/>
								<line class="st16" x1="-83.3" y1="196.7" x2="-87.2" y2="182.5"/>
								<path class="st16" d="M-110.8,188.5c0.7-2.3,6.7-4.3,8,0.2s-6.4,5.6-6.4,5.6"/>
								<path class="st16" d="M-86.6,184.9c1-5.3,6.9-4.8,8.2-0.3c1.3,4.5-6.1,5.1-6.1,5.1"/>
								<path class="st16" d="M-90,189.2c1.3,3,0.9,6.6-1.5,7.7c-2.4,1.1-5.1-0.4-6.5-3.5s-1.3-7.5,1.2-8.6S-91.4,186.2-90,189.2z"
									/>
							</g>
							<g class="st17">
								<line class="st18" x1="-39.7" y1="197.1" x2="-38.1" y2="218.3"/>
								<line class="st18" x1="-49.5" y1="208.5" x2="-28.3" y2="206.9"/>
							</g>
							<g>
								<line class="st16" x1="-5.4" y1="123.9" x2="-4.7" y2="133"/>
								<line class="st16" x1="-9.6" y1="128.8" x2="-0.5" y2="128.1"/>
							</g>
							<g>
								<line class="st19" x1="-119.3" y1="125.1" x2="-119.3" y2="129.1"/>
								<line class="st19" x1="-99" y1="117.4" x2="-99" y2="133.4"/>
								<line class="st19" x1="-88.8" y1="126.4" x2="-88.8" y2="130.5"/>
								<line class="st19" x1="-112.6" y1="120.9" x2="-112.6" y2="132.9"/>
								<line class="st19" x1="-115.9" y1="124" x2="-115.9" y2="130.3"/>
								<line class="st19" x1="-95.6" y1="119.6" x2="-95.6" y2="131.6"/>
								<line class="st19" x1="-92.2" y1="124.8" x2="-92.2" y2="133.8"/>
								<line class="st19" x1="-102.4" y1="113.8" x2="-102.4" y2="129.8"/>
								<line class="st19" x1="-105.8" y1="121.8" x2="-105.8" y2="133.8"/>
								<line class="st19" x1="-109.2" y1="118" x2="-109.2" y2="130"/>
							</g>
						</g>
					</g>
					<g>
						<g>
							<g class="st12">
								<line class="st13" x1="852.8" y1="49.4" x2="852.8" y2="62.7"/>
								<line class="st13" x1="918.7" y1="24.6" x2="918.7" y2="76.6"/>
								<line class="st13" x1="951.7" y1="53.9" x2="951.7" y2="67.1"/>
								<line class="st13" x1="874.7" y1="36" x2="874.7" y2="74.8"/>
								<line class="st13" x1="863.8" y1="45.9" x2="863.8" y2="66.5"/>
								<line class="st13" x1="929.7" y1="31.7" x2="929.7" y2="70.5"/>
								<line class="st13" x1="940.7" y1="48.6" x2="940.7" y2="77.7"/>
								<line class="st13" x1="907.7" y1="12.7" x2="907.7" y2="64.8"/>
								<line class="st13" x1="896.7" y1="38.9" x2="896.7" y2="77.8"/>
								<line class="st13" x1="885.7" y1="26.5" x2="885.7" y2="65.3"/>
							</g>
							<g class="st14">
								<path class="st15" d="M898-1.3c-0.1,1.1-0.2,2.4-0.2,3.7c0,1.7,0.1,3.2,0.2,4.5"/>
								<path class="st15" d="M901.3-0.8l-3,3c0,0,2.8,1.6,2.6,4.8"/>
								<line class="st15" x1="902.9" y1="3.1" x2="906.9" y2="3.1"/>
								<line class="st15" x1="909" y1="6.8" x2="909" y2="-0.8"/>
								<line class="st15" x1="923" y1="7.1" x2="922.5" y2="-1"/>
								<path class="st15" d="M909.2-0.4c0.6-1.2,4.1-1.5,4.3,1s-4.1,2.3-4.1,2.3"/>
								<path class="st15" d="M922.6,0.4c1.1-2.7,4.2-1.8,4.4,0.8s-3.8,2-3.8,2"/>
								<path class="st15" d="M920.3,2.3c0.4,1.8-0.2,3.6-1.7,3.9c-1.4,0.3-2.7-0.8-3.1-2.6s0.2-4.2,1.6-4.5
									C918.6-1.1,919.9,0.5,920.3,2.3z"/>
							</g>
							<g>
								<path class="st16" d="M819.1,80.1c0.2,2.1,0.5,4.3,1,6.8c0.6,3,1.3,5.7,2.1,8"/>
								<path class="st16" d="M825.3,79.7l-4.2,6.6c0,0,5.5,1.8,6.5,7.5"/>
								<line class="st16" x1="829.5" y1="86.1" x2="836.7" y2="84.6"/>
								<line class="st16" x1="841.9" y1="90.4" x2="839" y2="76.8"/>
								<line class="st16" x1="867" y1="85.7" x2="863.1" y2="71.5"/>
								<path class="st16" d="M839.6,77.4c0.7-2.3,6.7-4.3,8,0.2s-6.4,5.6-6.4,5.6"/>
								<path class="st16" d="M863.8,73.9c1-5.3,6.9-4.8,8.2-0.3s-6.1,5.1-6.1,5.1"/>
								<path class="st16" d="M860.3,78.2c1.3,3,1,6.6-1.5,7.7c-2.4,1.1-5.1-0.4-6.5-3.5c-1.3-3-1.3-7.5,1.2-8.6
									S859,75.1,860.3,78.2z"/>
							</g>
							<g class="st17">
								<line class="st18" x1="910.6" y1="86.1" x2="912.3" y2="107.2"/>
								<line class="st18" x1="900.9" y1="97.5" x2="922" y2="95.8"/>
							</g>
							<g>
								<line class="st16" x1="944.9" y1="12.9" x2="945.6" y2="22"/>
								<line class="st16" x1="940.7" y1="17.8" x2="949.8" y2="17.1"/>
							</g>
							<g>
								<line class="st19" x1="831" y1="14" x2="831" y2="18.1"/>
								<line class="st19" x1="851.3" y1="6.4" x2="851.3" y2="22.4"/>
								<line class="st19" x1="861.5" y1="15.4" x2="861.5" y2="19.5"/>
								<line class="st19" x1="837.8" y1="9.9" x2="837.8" y2="21.9"/>
								<line class="st19" x1="834.4" y1="12.9" x2="834.4" y2="19.3"/>
								<line class="st19" x1="854.7" y1="8.6" x2="854.7" y2="20.5"/>
								<line class="st19" x1="858.1" y1="13.8" x2="858.1" y2="22.7"/>
								<line class="st19" x1="847.9" y1="2.7" x2="847.9" y2="18.8"/>
								<line class="st19" x1="844.5" y1="10.8" x2="844.5" y2="22.8"/>
								<line class="st19" x1="841.2" y1="6.9" x2="841.2" y2="18.9"/>
							</g>
						</g>
						<g>
							<g class="st12">
								<line class="st13" x1="716" y1="49.4" x2="716" y2="62.7"/>
								<line class="st13" x1="781.9" y1="24.6" x2="781.9" y2="76.6"/>
								<line class="st13" x1="814.9" y1="53.9" x2="814.9" y2="67.1"/>
								<line class="st13" x1="738" y1="36" x2="738" y2="74.8"/>
								<line class="st13" x1="727" y1="45.9" x2="727" y2="66.5"/>
								<line class="st13" x1="792.9" y1="31.7" x2="792.9" y2="70.5"/>
								<line class="st13" x1="803.9" y1="48.6" x2="803.9" y2="77.7"/>
								<line class="st13" x1="770.9" y1="12.7" x2="770.9" y2="64.8"/>
								<line class="st13" x1="759.9" y1="38.9" x2="759.9" y2="77.8"/>
								<line class="st13" x1="748.9" y1="26.5" x2="748.9" y2="65.3"/>
							</g>
							<g class="st14">
								<path class="st15" d="M761.2-1.3c-0.1,1.1-0.2,2.4-0.2,3.7c0,1.7,0.1,3.2,0.2,4.5"/>
								<path class="st15" d="M764.5-0.8l-3,3c0,0,2.8,1.6,2.6,4.8"/>
								<line class="st15" x1="766.1" y1="3.1" x2="770.1" y2="3.1"/>
								<line class="st15" x1="772.2" y1="6.8" x2="772.2" y2="-0.8"/>
								<line class="st15" x1="786.2" y1="7.1" x2="785.7" y2="-1"/>
								<path class="st15" d="M772.5-0.4c0.6-1.2,4.1-1.5,4.3,1s-4.1,2.3-4.1,2.3"/>
								<path class="st15" d="M785.8,0.4c1.1-2.7,4.2-1.8,4.4,0.8s-3.8,2-3.8,2"/>
								<path class="st15" d="M783.5,2.3c0.4,1.8-0.2,3.6-1.7,3.9c-1.4,0.3-2.7-0.8-3.1-2.6s0.2-4.2,1.6-4.5
									C781.8-1.1,783.1,0.5,783.5,2.3z"/>
							</g>
							<g>
								<path class="st16" d="M682.3,80.1c0.2,2.1,0.5,4.3,1,6.8c0.6,3,1.3,5.7,2.1,8"/>
								<path class="st16" d="M688.5,79.7l-4.2,6.6c0,0,5.5,1.8,6.5,7.5"/>
								<line class="st16" x1="692.7" y1="86.1" x2="699.9" y2="84.6"/>
								<line class="st16" x1="705.1" y1="90.4" x2="702.2" y2="76.8"/>
								<line class="st16" x1="730.2" y1="85.7" x2="726.3" y2="71.5"/>
								<path class="st16" d="M702.8,77.4c0.7-2.3,6.7-4.3,8,0.2s-6.4,5.6-6.4,5.6"/>
								<path class="st16" d="M727,73.9c1-5.3,6.9-4.8,8.2-0.3s-6.1,5.1-6.1,5.1"/>
								<path class="st16" d="M723.5,78.2c1.3,3,1,6.6-1.5,7.7c-2.4,1.1-5.1-0.4-6.5-3.5c-1.3-3-1.3-7.5,1.2-8.6
									S722.2,75.1,723.5,78.2z"/>
							</g>
							<g class="st17">
								<line class="st18" x1="773.8" y1="86.1" x2="775.5" y2="107.2"/>
								<line class="st18" x1="764.1" y1="97.5" x2="785.2" y2="95.8"/>
							</g>
							<g>
								<line class="st16" x1="808.1" y1="12.9" x2="808.8" y2="22"/>
								<line class="st16" x1="803.9" y1="17.8" x2="813" y2="17.1"/>
							</g>
							<g>
								<line class="st19" x1="694.2" y1="14" x2="694.2" y2="18.1"/>
								<line class="st19" x1="714.5" y1="6.4" x2="714.5" y2="22.4"/>
								<line class="st19" x1="724.7" y1="15.4" x2="724.7" y2="19.5"/>
								<line class="st19" x1="701" y1="9.9" x2="701" y2="21.9"/>
								<line class="st19" x1="697.6" y1="12.9" x2="697.6" y2="19.3"/>
								<line class="st19" x1="717.9" y1="8.6" x2="717.9" y2="20.5"/>
								<line class="st19" x1="721.3" y1="13.8" x2="721.3" y2="22.7"/>
								<line class="st19" x1="711.1" y1="2.7" x2="711.1" y2="18.8"/>
								<line class="st19" x1="707.8" y1="10.8" x2="707.8" y2="22.8"/>
								<line class="st19" x1="704.4" y1="6.9" x2="704.4" y2="18.9"/>
							</g>
						</g>
						<g>
							<g class="st12">
								<line class="st13" x1="579.2" y1="49.4" x2="579.2" y2="62.7"/>
								<line class="st13" x1="645.1" y1="24.6" x2="645.1" y2="76.6"/>
								<line class="st13" x1="678.1" y1="53.9" x2="678.1" y2="67.1"/>
								<line class="st13" x1="601.2" y1="36" x2="601.2" y2="74.8"/>
								<line class="st13" x1="590.2" y1="45.9" x2="590.2" y2="66.5"/>
								<line class="st13" x1="656.1" y1="31.7" x2="656.1" y2="70.5"/>
								<line class="st13" x1="667.1" y1="48.6" x2="667.1" y2="77.7"/>
								<line class="st13" x1="634.1" y1="12.7" x2="634.1" y2="64.8"/>
								<line class="st13" x1="623.1" y1="38.9" x2="623.1" y2="77.8"/>
								<line class="st13" x1="612.1" y1="26.5" x2="612.1" y2="65.3"/>
							</g>
							<g class="st14">
								<path class="st15" d="M624.4-1.3c-0.1,1.1-0.2,2.4-0.2,3.7c0,1.7,0.1,3.2,0.2,4.5"/>
								<path class="st15" d="M627.7-0.8l-3,3c0,0,2.8,1.6,2.6,4.8"/>
								<line class="st15" x1="629.3" y1="3.1" x2="633.3" y2="3.1"/>
								<line class="st15" x1="635.4" y1="6.8" x2="635.4" y2="-0.8"/>
								<line class="st15" x1="649.4" y1="7.1" x2="648.9" y2="-1"/>
								<path class="st15" d="M635.7-0.4c0.6-1.2,4.1-1.5,4.3,1s-4.1,2.3-4.1,2.3"/>
								<path class="st15" d="M649,0.4c1.1-2.7,4.2-1.8,4.4,0.8s-3.8,2-3.8,2"/>
								<path class="st15" d="M646.7,2.3c0.4,1.8-0.2,3.6-1.7,3.9c-1.4,0.3-2.7-0.8-3.1-2.6s0.2-4.2,1.6-4.5
									C645-1.1,646.3,0.5,646.7,2.3z"/>
							</g>
							<g>
								<path class="st16" d="M545.5,80.1c0.2,2.1,0.5,4.3,1,6.8c0.6,3,1.3,5.7,2.1,8"/>
								<path class="st16" d="M551.7,79.7l-4.2,6.6c0,0,5.5,1.8,6.5,7.5"/>
								<line class="st16" x1="555.9" y1="86.1" x2="563.1" y2="84.6"/>
								<line class="st16" x1="568.3" y1="90.4" x2="565.4" y2="76.8"/>
								<line class="st16" x1="593.4" y1="85.7" x2="589.5" y2="71.5"/>
								<path class="st16" d="M566,77.4c0.7-2.3,6.7-4.3,8,0.2s-6.4,5.6-6.4,5.6"/>
								<path class="st16" d="M590.2,73.9c1-5.3,6.9-4.8,8.2-0.3s-6.1,5.1-6.1,5.1"/>
								<path class="st16" d="M586.7,78.2c1.3,3,1,6.6-1.5,7.7c-2.4,1.1-5.1-0.4-6.5-3.5c-1.3-3-1.3-7.5,1.2-8.6
									S585.4,75.1,586.7,78.2z"/>
							</g>
							<g class="st17">
								<line class="st18" x1="637" y1="86.1" x2="638.7" y2="107.2"/>
								<line class="st18" x1="627.3" y1="97.5" x2="648.4" y2="95.8"/>
							</g>
							<g>
								<line class="st16" x1="671.3" y1="12.9" x2="672" y2="22"/>
								<line class="st16" x1="667.1" y1="17.8" x2="676.2" y2="17.1"/>
							</g>
							<g>
								<line class="st19" x1="557.4" y1="14" x2="557.4" y2="18.1"/>
								<line class="st19" x1="577.7" y1="6.4" x2="577.7" y2="22.4"/>
								<line class="st19" x1="587.9" y1="15.4" x2="587.9" y2="19.5"/>
								<line class="st19" x1="564.2" y1="9.9" x2="564.2" y2="21.9"/>
								<line class="st19" x1="560.8" y1="12.9" x2="560.8" y2="19.3"/>
								<line class="st19" x1="581.1" y1="8.6" x2="581.1" y2="20.5"/>
								<line class="st19" x1="584.5" y1="13.8" x2="584.5" y2="22.7"/>
								<line class="st19" x1="574.3" y1="2.7" x2="574.3" y2="18.8"/>
								<line class="st19" x1="571" y1="10.8" x2="571" y2="22.8"/>
								<line class="st19" x1="567.6" y1="6.9" x2="567.6" y2="18.9"/>
							</g>
						</g>
						<g>
							<g class="st12">
								<line class="st13" x1="442.4" y1="49.4" x2="442.4" y2="62.7"/>
								<line class="st13" x1="508.3" y1="24.6" x2="508.3" y2="76.6"/>
								<line class="st13" x1="541.3" y1="53.9" x2="541.3" y2="67.1"/>
								<line class="st13" x1="464.4" y1="36" x2="464.4" y2="74.8"/>
								<line class="st13" x1="453.4" y1="45.9" x2="453.4" y2="66.5"/>
								<line class="st13" x1="519.3" y1="31.7" x2="519.3" y2="70.5"/>
								<line class="st13" x1="530.3" y1="48.6" x2="530.3" y2="77.7"/>
								<line class="st13" x1="497.3" y1="12.7" x2="497.3" y2="64.8"/>
								<line class="st13" x1="486.3" y1="38.9" x2="486.3" y2="77.8"/>
								<line class="st13" x1="475.4" y1="26.5" x2="475.4" y2="65.3"/>
							</g>
							<g class="st14">
								<path class="st15" d="M487.6-1.3c-0.1,1.1-0.2,2.4-0.2,3.7c0,1.7,0.1,3.2,0.2,4.5"/>
								<path class="st15" d="M490.9-0.8l-3,3c0,0,2.8,1.6,2.6,4.8"/>
								<line class="st15" x1="492.5" y1="3.1" x2="496.5" y2="3.1"/>
								<line class="st15" x1="498.6" y1="6.8" x2="498.6" y2="-0.8"/>
								<line class="st15" x1="512.6" y1="7.1" x2="512.1" y2="-1"/>
								<path class="st15" d="M498.9-0.4c0.6-1.2,4.1-1.5,4.3,1s-4.1,2.3-4.1,2.3"/>
								<path class="st15" d="M512.2,0.4c1.1-2.7,4.2-1.8,4.4,0.8s-3.8,2-3.8,2"/>
								<path class="st15" d="M509.9,2.3c0.4,1.8-0.2,3.6-1.7,3.9c-1.4,0.3-2.7-0.8-3.1-2.6s0.2-4.2,1.6-4.5S509.5,0.5,509.9,2.3z"
									/>
							</g>
							<g>
								<path class="st16" d="M408.7,80.1c0.2,2.1,0.5,4.3,1,6.8c0.6,3,1.3,5.7,2.1,8"/>
								<path class="st16" d="M414.9,79.7l-4.2,6.6c0,0,5.5,1.8,6.5,7.5"/>
								<line class="st16" x1="419.1" y1="86.1" x2="426.3" y2="84.6"/>
								<line class="st16" x1="431.5" y1="90.4" x2="428.6" y2="76.8"/>
								<line class="st16" x1="456.6" y1="85.7" x2="452.7" y2="71.5"/>
								<path class="st16" d="M429.2,77.4c0.7-2.3,6.7-4.3,8,0.2s-6.4,5.6-6.4,5.6"/>
								<path class="st16" d="M453.4,73.9c1-5.3,6.9-4.8,8.2-0.3s-6.1,5.1-6.1,5.1"/>
								<path class="st16" d="M449.9,78.2c1.4,3,1,6.6-1.5,7.7c-2.4,1.1-5.1-0.4-6.5-3.5c-1.4-3-1.3-7.5,1.2-8.6
									S448.6,75.1,449.9,78.2z"/>
							</g>
							<g class="st17">
								<line class="st18" x1="500.2" y1="86.1" x2="501.9" y2="107.2"/>
								<line class="st18" x1="490.5" y1="97.5" x2="511.6" y2="95.8"/>
							</g>
							<g>
								<line class="st16" x1="534.5" y1="12.9" x2="535.2" y2="22"/>
								<line class="st16" x1="530.3" y1="17.8" x2="539.4" y2="17.1"/>
							</g>
							<g>
								<line class="st19" x1="420.6" y1="14" x2="420.6" y2="18.1"/>
								<line class="st19" x1="440.9" y1="6.4" x2="440.9" y2="22.4"/>
								<line class="st19" x1="451.1" y1="15.4" x2="451.1" y2="19.5"/>
								<line class="st19" x1="427.4" y1="9.9" x2="427.4" y2="21.9"/>
								<line class="st19" x1="424" y1="12.9" x2="424" y2="19.3"/>
								<line class="st19" x1="444.3" y1="8.6" x2="444.3" y2="20.5"/>
								<line class="st19" x1="447.7" y1="13.8" x2="447.7" y2="22.7"/>
								<line class="st19" x1="437.6" y1="2.7" x2="437.6" y2="18.8"/>
								<line class="st19" x1="434.2" y1="10.8" x2="434.2" y2="22.8"/>
								<line class="st19" x1="430.8" y1="6.9" x2="430.8" y2="18.9"/>
							</g>
						</g>
						<g>
							<g class="st12">
								<line class="st13" x1="880.3" y1="160.5" x2="880.3" y2="173.7"/>
								<line class="st13" x1="946.3" y1="135.6" x2="946.3" y2="187.7"/>
								<line class="st13" x1="979.2" y1="164.9" x2="979.2" y2="178.1"/>
								<line class="st13" x1="902.3" y1="147.1" x2="902.3" y2="185.9"/>
								<line class="st13" x1="891.3" y1="156.9" x2="891.3" y2="177.5"/>
								<line class="st13" x1="957.2" y1="142.8" x2="957.2" y2="181.6"/>
								<line class="st13" x1="968.2" y1="159.6" x2="968.2" y2="188.7"/>
								<line class="st13" x1="935.3" y1="123.8" x2="935.3" y2="175.8"/>
								<line class="st13" x1="924.3" y1="150" x2="924.3" y2="188.8"/>
								<line class="st13" x1="913.3" y1="137.5" x2="913.3" y2="176.4"/>
							</g>
							<g class="st14">
								<path class="st15" d="M925.5,109.8c-0.1,1.1-0.2,2.4-0.2,3.7c0,1.7,0.1,3.2,0.2,4.5"/>
								<path class="st15" d="M928.9,110.2l-3,3c0,0,2.8,1.6,2.6,4.8"/>
								<line class="st15" x1="930.4" y1="114.1" x2="934.4" y2="114.1"/>
								<line class="st15" x1="936.6" y1="117.8" x2="936.6" y2="110.2"/>
								<line class="st15" x1="950.5" y1="118.1" x2="950" y2="110.1"/>
								<path class="st15" d="M936.8,110.6c0.6-1.2,4.1-1.6,4.3,1s-4.1,2.3-4.1,2.3"/>
								<path class="st15" d="M950.1,111.5c1.1-2.7,4.2-1.8,4.4,0.8s-3.8,2-3.8,2"/>
								<path class="st15" d="M947.8,113.4c0.4,1.8-0.2,3.6-1.7,3.9c-1.4,0.3-2.7-0.8-3.1-2.6s0.2-4.2,1.6-4.5
									C946.1,109.9,947.4,111.6,947.8,113.4z"/>
							</g>
							<g>
								<path class="st16" d="M846.7,191.2c0.2,2.1,0.5,4.3,1,6.8c0.6,3,1.3,5.7,2.1,8"/>
								<path class="st16" d="M852.8,190.7l-4.2,6.6c0,0,5.5,1.8,6.5,7.5"/>
								<line class="st16" x1="857" y1="197.1" x2="864.2" y2="195.6"/>
								<line class="st16" x1="869.4" y1="201.4" x2="866.6" y2="187.9"/>
								<line class="st16" x1="894.6" y1="196.7" x2="890.6" y2="182.5"/>
								<path class="st16" d="M867.1,188.5c0.7-2.3,6.7-4.3,8,0.2s-6.4,5.6-6.4,5.6"/>
								<path class="st16" d="M891.3,184.9c1-5.3,6.9-4.8,8.2-0.3s-6.1,5.1-6.1,5.1"/>
								<path class="st16" d="M887.9,189.2c1.3,3,1,6.6-1.5,7.7c-2.4,1.1-5.1-0.4-6.5-3.5s-1.3-7.5,1.2-8.6S886.5,186.2,887.9,189.2
									z"/>
							</g>
							<g class="st17">
								<line class="st18" x1="938.1" y1="197.1" x2="939.8" y2="218.3"/>
								<line class="st18" x1="928.4" y1="208.5" x2="949.5" y2="206.9"/>
							</g>
							<g>
								<line class="st16" x1="972.4" y1="123.9" x2="973.2" y2="133"/>
								<line class="st16" x1="968.2" y1="128.8" x2="977.3" y2="128.1"/>
							</g>
							<g>
								<line class="st19" x1="858.5" y1="125.1" x2="858.5" y2="129.1"/>
								<line class="st19" x1="878.9" y1="117.4" x2="878.9" y2="133.4"/>
								<line class="st19" x1="889" y1="126.4" x2="889" y2="130.5"/>
								<line class="st19" x1="865.3" y1="120.9" x2="865.3" y2="132.9"/>
								<line class="st19" x1="861.9" y1="124" x2="861.9" y2="130.3"/>
								<line class="st19" x1="882.3" y1="119.6" x2="882.3" y2="131.6"/>
								<line class="st19" x1="885.7" y1="124.8" x2="885.7" y2="133.8"/>
								<line class="st19" x1="875.5" y1="113.8" x2="875.5" y2="129.8"/>
								<line class="st19" x1="872.1" y1="121.8" x2="872.1" y2="133.8"/>
								<line class="st19" x1="868.7" y1="118" x2="868.7" y2="130"/>
							</g>
						</g>
						<g>
							<g class="st12">
								<line class="st13" x1="743.5" y1="160.5" x2="743.5" y2="173.7"/>
								<line class="st13" x1="809.5" y1="135.6" x2="809.5" y2="187.7"/>
								<line class="st13" x1="842.4" y1="164.9" x2="842.4" y2="178.1"/>
								<line class="st13" x1="765.5" y1="147.1" x2="765.5" y2="185.9"/>
								<line class="st13" x1="754.5" y1="156.9" x2="754.5" y2="177.5"/>
								<line class="st13" x1="820.5" y1="142.8" x2="820.5" y2="181.6"/>
								<line class="st13" x1="831.4" y1="159.6" x2="831.4" y2="188.7"/>
								<line class="st13" x1="798.5" y1="123.8" x2="798.5" y2="175.8"/>
								<line class="st13" x1="787.5" y1="150" x2="787.5" y2="188.8"/>
								<line class="st13" x1="776.5" y1="137.5" x2="776.5" y2="176.4"/>
							</g>
							<g class="st14">
								<path class="st15" d="M788.8,109.8c-0.1,1.1-0.2,2.4-0.2,3.7c0,1.7,0.1,3.2,0.2,4.5"/>
								<path class="st15" d="M792.1,110.2l-3,3c0,0,2.8,1.6,2.6,4.8"/>
								<line class="st15" x1="793.6" y1="114.1" x2="797.7" y2="114.1"/>
								<line class="st15" x1="799.8" y1="117.8" x2="799.8" y2="110.2"/>
								<line class="st15" x1="813.7" y1="118.1" x2="813.3" y2="110.1"/>
								<path class="st15" d="M800,110.6c0.6-1.2,4.1-1.6,4.3,1s-4.1,2.3-4.1,2.3"/>
								<path class="st15" d="M813.3,111.5c1.1-2.7,4.2-1.8,4.4,0.8s-3.8,2-3.8,2"/>
								<path class="st15" d="M811,113.4c0.4,1.8-0.2,3.6-1.7,3.9c-1.4,0.3-2.7-0.8-3.1-2.6s0.2-4.2,1.6-4.5
									C809.3,109.9,810.6,111.6,811,113.4z"/>
							</g>
							<g>
								<path class="st16" d="M709.9,191.2c0.2,2.1,0.5,4.3,1,6.8c0.6,3,1.3,5.7,2.1,8"/>
								<path class="st16" d="M716,190.7l-4.2,6.6c0,0,5.5,1.8,6.5,7.5"/>
								<line class="st16" x1="720.2" y1="197.1" x2="727.4" y2="195.6"/>
								<line class="st16" x1="732.6" y1="201.4" x2="729.8" y2="187.9"/>
								<line class="st16" x1="757.8" y1="196.7" x2="753.8" y2="182.5"/>
								<path class="st16" d="M730.3,188.5c0.7-2.3,6.7-4.3,8,0.2s-6.4,5.6-6.4,5.6"/>
								<path class="st16" d="M754.5,184.9c1-5.3,6.9-4.8,8.2-0.3s-6.1,5.1-6.1,5.1"/>
								<path class="st16" d="M751.1,189.2c1.3,3,1,6.6-1.5,7.7c-2.4,1.1-5.1-0.4-6.5-3.5s-1.3-7.5,1.2-8.6S749.7,186.2,751.1,189.2
									z"/>
							</g>
							<g class="st17">
								<line class="st18" x1="801.3" y1="197.1" x2="803" y2="218.3"/>
								<line class="st18" x1="791.6" y1="208.5" x2="812.7" y2="206.9"/>
							</g>
							<g>
								<line class="st16" x1="835.6" y1="123.9" x2="836.4" y2="133"/>
								<line class="st16" x1="831.4" y1="128.8" x2="840.5" y2="128.1"/>
							</g>
							<g>
								<line class="st19" x1="721.8" y1="125.1" x2="721.8" y2="129.1"/>
								<line class="st19" x1="742.1" y1="117.4" x2="742.1" y2="133.4"/>
								<line class="st19" x1="752.3" y1="126.4" x2="752.3" y2="130.5"/>
								<line class="st19" x1="728.5" y1="120.9" x2="728.5" y2="132.9"/>
								<line class="st19" x1="725.1" y1="124" x2="725.1" y2="130.3"/>
								<line class="st19" x1="745.5" y1="119.6" x2="745.5" y2="131.6"/>
								<line class="st19" x1="748.9" y1="124.8" x2="748.9" y2="133.8"/>
								<line class="st19" x1="738.7" y1="113.8" x2="738.7" y2="129.8"/>
								<line class="st19" x1="735.3" y1="121.8" x2="735.3" y2="133.8"/>
								<line class="st19" x1="731.9" y1="118" x2="731.9" y2="130"/>
							</g>
						</g>
						<g>
							<g class="st12">
								<line class="st13" x1="606.7" y1="160.5" x2="606.7" y2="173.7"/>
								<line class="st13" x1="672.7" y1="135.6" x2="672.7" y2="187.7"/>
								<line class="st13" x1="705.6" y1="164.9" x2="705.6" y2="178.1"/>
								<line class="st13" x1="628.7" y1="147.1" x2="628.7" y2="185.9"/>
								<line class="st13" x1="617.7" y1="156.9" x2="617.7" y2="177.5"/>
								<line class="st13" x1="683.7" y1="142.8" x2="683.7" y2="181.6"/>
								<line class="st13" x1="694.7" y1="159.6" x2="694.7" y2="188.7"/>
								<line class="st13" x1="661.7" y1="123.8" x2="661.7" y2="175.8"/>
								<line class="st13" x1="650.7" y1="150" x2="650.7" y2="188.8"/>
								<line class="st13" x1="639.7" y1="137.5" x2="639.7" y2="176.4"/>
							</g>
							<g class="st14">
								<path class="st15" d="M652,109.8c-0.1,1.1-0.2,2.4-0.2,3.7c0,1.7,0.1,3.2,0.2,4.5"/>
								<path class="st15" d="M655.3,110.2l-3,3c0,0,2.8,1.6,2.6,4.8"/>
								<line class="st15" x1="656.8" y1="114.1" x2="660.8" y2="114.1"/>
								<line class="st15" x1="663" y1="117.8" x2="663" y2="110.2"/>
								<line class="st15" x1="677" y1="118.1" x2="676.5" y2="110.1"/>
								<path class="st15" d="M663.2,110.6c0.6-1.2,4.1-1.6,4.3,1s-4.1,2.3-4.1,2.3"/>
								<path class="st15" d="M676.5,111.5c1.1-2.7,4.2-1.8,4.4,0.8c0.2,2.6-3.8,2-3.8,2"/>
								<path class="st15" d="M674.2,113.4c0.4,1.8-0.2,3.6-1.7,3.9c-1.4,0.3-2.7-0.8-3.1-2.6s0.2-4.2,1.6-4.5
									S673.8,111.6,674.2,113.4z"/>
							</g>
							<g>
								<path class="st16" d="M573.1,191.2c0.2,2.1,0.5,4.3,1,6.8c0.6,3,1.3,5.7,2.1,8"/>
								<path class="st16" d="M579.2,190.7l-4.2,6.6c0,0,5.5,1.8,6.5,7.5"/>
								<line class="st16" x1="583.4" y1="197.1" x2="590.7" y2="195.6"/>
								<line class="st16" x1="595.8" y1="201.4" x2="593" y2="187.9"/>
								<line class="st16" x1="621" y1="196.7" x2="617" y2="182.5"/>
								<path class="st16" d="M593.5,188.5c0.7-2.3,6.7-4.3,8,0.2s-6.4,5.6-6.4,5.6"/>
								<path class="st16" d="M617.7,184.9c1-5.3,6.9-4.8,8.2-0.3s-6.1,5.1-6.1,5.1"/>
								<path class="st16" d="M614.3,189.2c1.3,3,1,6.6-1.5,7.7c-2.4,1.1-5.1-0.4-6.5-3.5s-1.3-7.5,1.2-8.6S612.9,186.2,614.3,189.2
									z"/>
							</g>
							<g class="st17">
								<line class="st18" x1="664.5" y1="197.1" x2="666.2" y2="218.3"/>
								<line class="st18" x1="654.8" y1="208.5" x2="676" y2="206.9"/>
							</g>
							<g>
								<line class="st16" x1="698.8" y1="123.9" x2="699.6" y2="133"/>
								<line class="st16" x1="694.7" y1="128.8" x2="703.8" y2="128.1"/>
							</g>
							<g>
								<line class="st19" x1="585" y1="125.1" x2="585" y2="129.1"/>
								<line class="st19" x1="605.3" y1="117.4" x2="605.3" y2="133.4"/>
								<line class="st19" x1="615.5" y1="126.4" x2="615.5" y2="130.5"/>
								<line class="st19" x1="591.7" y1="120.9" x2="591.7" y2="132.9"/>
								<line class="st19" x1="588.3" y1="124" x2="588.3" y2="130.3"/>
								<line class="st19" x1="608.7" y1="119.6" x2="608.7" y2="131.6"/>
								<line class="st19" x1="612.1" y1="124.8" x2="612.1" y2="133.8"/>
								<line class="st19" x1="601.9" y1="113.8" x2="601.9" y2="129.8"/>
								<line class="st19" x1="598.5" y1="121.8" x2="598.5" y2="133.8"/>
								<line class="st19" x1="595.1" y1="118" x2="595.1" y2="130"/>
							</g>
						</g>
						<g>
							<g class="st12">
								<line class="st13" x1="469.9" y1="160.5" x2="469.9" y2="173.7"/>
								<line class="st13" x1="535.9" y1="135.6" x2="535.9" y2="187.7"/>
								<line class="st13" x1="568.8" y1="164.9" x2="568.8" y2="178.1"/>
								<line class="st13" x1="491.9" y1="147.1" x2="491.9" y2="185.9"/>
								<line class="st13" x1="480.9" y1="156.9" x2="480.9" y2="177.5"/>
								<line class="st13" x1="546.9" y1="142.8" x2="546.9" y2="181.6"/>
								<line class="st13" x1="557.8" y1="159.6" x2="557.8" y2="188.7"/>
								<line class="st13" x1="524.9" y1="123.8" x2="524.9" y2="175.8"/>
								<line class="st13" x1="513.9" y1="150" x2="513.9" y2="188.8"/>
								<line class="st13" x1="502.9" y1="137.5" x2="502.9" y2="176.4"/>
							</g>
							<g class="st14">
								<path class="st15" d="M515.2,109.8c-0.1,1.1-0.2,2.4-0.2,3.7c0,1.7,0.1,3.2,0.2,4.5"/>
								<path class="st15" d="M518.5,110.2l-3,3c0,0,2.8,1.6,2.6,4.8"/>
								<line class="st15" x1="520" y1="114.1" x2="524.1" y2="114.1"/>
								<line class="st15" x1="526.2" y1="117.8" x2="526.2" y2="110.2"/>
								<line class="st15" x1="540.2" y1="118.1" x2="539.7" y2="110.1"/>
								<path class="st15" d="M526.4,110.6c0.6-1.2,4.1-1.6,4.3,1s-4.1,2.3-4.1,2.3"/>
								<path class="st15" d="M539.8,111.5c1.1-2.7,4.2-1.8,4.4,0.8c0.2,2.6-3.8,2-3.8,2"/>
								<path class="st15" d="M537.4,113.4c0.4,1.8-0.2,3.6-1.7,3.9c-1.4,0.3-2.7-0.8-3.1-2.6s0.2-4.2,1.6-4.5
									S537,111.6,537.4,113.4z"/>
							</g>
							<g>
								<path class="st16" d="M436.3,191.2c0.2,2.1,0.5,4.3,1,6.8c0.6,3,1.3,5.7,2.1,8"/>
								<path class="st16" d="M442.4,190.7l-4.2,6.6c0,0,5.5,1.8,6.5,7.5"/>
								<line class="st16" x1="446.6" y1="197.1" x2="453.9" y2="195.6"/>
								<line class="st16" x1="459" y1="201.4" x2="456.2" y2="187.9"/>
								<line class="st16" x1="484.2" y1="196.7" x2="480.3" y2="182.5"/>
								<path class="st16" d="M456.7,188.5c0.7-2.3,6.7-4.3,8,0.2s-6.4,5.6-6.4,5.6"/>
								<path class="st16" d="M480.9,184.9c1-5.3,6.9-4.8,8.2-0.3c1.3,4.5-6.1,5.1-6.1,5.1"/>
								<path class="st16" d="M477.5,189.2c1.4,3,1,6.6-1.5,7.7c-2.4,1.1-5.1-0.4-6.5-3.5s-1.3-7.5,1.2-8.6S476.1,186.2,477.5,189.2
									z"/>
							</g>
							<g class="st17">
								<line class="st18" x1="527.8" y1="197.1" x2="529.4" y2="218.3"/>
								<line class="st18" x1="518" y1="208.5" x2="539.2" y2="206.9"/>
							</g>
							<g>
								<line class="st16" x1="562" y1="123.9" x2="562.8" y2="133"/>
								<line class="st16" x1="557.8" y1="128.8" x2="567" y2="128.1"/>
							</g>
							<g>
								<line class="st19" x1="448.2" y1="125.1" x2="448.2" y2="129.1"/>
								<line class="st19" x1="468.5" y1="117.4" x2="468.5" y2="133.4"/>
								<line class="st19" x1="478.7" y1="126.4" x2="478.7" y2="130.5"/>
								<line class="st19" x1="454.9" y1="120.9" x2="454.9" y2="132.9"/>
								<line class="st19" x1="451.5" y1="124" x2="451.5" y2="130.3"/>
								<line class="st19" x1="471.9" y1="119.6" x2="471.9" y2="131.6"/>
								<line class="st19" x1="475.3" y1="124.8" x2="475.3" y2="133.8"/>
								<line class="st19" x1="465.1" y1="113.8" x2="465.1" y2="129.8"/>
								<line class="st19" x1="461.7" y1="121.8" x2="461.7" y2="133.8"/>
								<line class="st19" x1="458.3" y1="118" x2="458.3" y2="130"/>
							</g>
						</g>
					</g>
				</g>
			</g>
		</g>
	</g>
	<g>
		<g class="st20">
			<line class="st21" x1="410.2" y1="253" x2="410.2" y2="338"/>
			<line class="st21" x1="410.2" y1="364.6" x2="410.2" y2="449.6"/>
		</g>
		<ellipse class="st22" cx="410.2" cy="351.3" rx="5.9" ry="4.1"/>
		<ellipse class="st22" cx="410.2" cy="359" rx="2.9" ry="2"/>
		<ellipse class="st22" cx="410.2" cy="343.6" rx="2.9" ry="2"/>
	</g>
</g>
<g id="Capa_1_1_">
</g>
<g id="Capa_3">
</g>
</svg>
